Tarea 2/resultados.vcd
$date
	Tue Sep 17 11:48:32 2024
$end
$version
	Icarus Verilog
$end
$timescale
	1s
$end
$scope module controlador_estacionamiento_tb $end
$scope module U0 $end
$var wire 1 ! _006_ $end
$var wire 1 " _007_ $end
$var wire 1 # _008_ $end
$var wire 1 $ _009_ $end
$var wire 1 % _010_ $end
$var wire 1 & _011_ $end
$var wire 1 ' _012_ $end
$var wire 1 ( _013_ $end
$var wire 1 ) _015_ $end
$var wire 1 * _016_ $end
$var wire 1 + _017_ $end
$var wire 1 , _018_ $end
$var wire 1 - _019_ $end
$var wire 1 . _020_ $end
$var wire 1 / _021_ $end
$var wire 1 0 _022_ $end
$var wire 1 1 _035_ $end
$var wire 1 2 _036_ $end
$var wire 1 3 _037_ $end
$var wire 1 4 _039_ $end
$var wire 1 5 _040_ $end
$var wire 1 6 _041_ $end
$var wire 1 7 _042_ $end
$var wire 1 8 _043_ $end
$var wire 1 9 _044_ $end
$var wire 1 : _045_ $end
$var wire 1 ; _046_ $end
$var wire 1 < clk $end
$var wire 16 = password_input [15:0] $end
$var wire 1 > rst $end
$var wire 1 ? sensor_moved_vehicule $end
$var wire 1 @ sensor_vehicule $end
$var wire 32 A _038_ [31:0] $end
$var wire 32 B _034_ [31:0] $end
$var wire 6 C _033_ [5:0] $end
$var wire 2 D _032_ [1:0] $end
$var wire 1 E _031_ $end
$var wire 16 F _030_ [15:0] $end
$var wire 8 G _029_ [7:0] $end
$var wire 16 H _028_ [15:0] $end
$var wire 8 I _027_ [7:0] $end
$var wire 16 J _026_ [15:0] $end
$var wire 2 K _025_ [1:0] $end
$var wire 4 L _024_ [3:0] $end
$var wire 8 M _023_ [7:0] $end
$var wire 7 N _014_ [6:0] $end
$var wire 32 O _005_ [31:0] $end
$var wire 1 P _004_ $end
$var wire 3 Q _003_ [2:0] $end
$var wire 1 R _002_ $end
$var wire 1 S _001_ $end
$var wire 1 T _000_ $end
$var reg 1 U alarm_blocked $end
$var reg 1 V alarm_wrong_pin $end
$var reg 1 W close_gate $end
$var reg 3 X counter [2:0] $end
$var reg 1 Y open_gate $end
$var reg 7 Z state [6:0] $end
$upscope $end
$upscope $end
$enddefinitions $end
#0
$dumpvars
b1 Z
0Y
b0 X
0W
0V
0U
0T
0S
0R
b0 Q
0P
b0z001 O
b1 N
b1111101 M
b1111 L
b11 K
b1111111111111110 J
b11111110 I
b1111111111111110 H
b11111110 G
b11011101100001 F
0E
b0 D
b0 C
b0 B
b1 A
0@
0?
1>
b0 =
0<
0;
1:
19
18
17
16
15
14
13
02
11
10
1/
0.
1-
1,
1+
0*
1)
0(
0'
0&
0%
0$
0#
0"
1!
$end
#5
1<
#10
0<
0>
#15
1<
#20
0!
b10000 N
0)
1$
0<
1@
#25
06
07
08
09
b100 N
00
0/
0:
0$
b10000 Z
1<
#30
0<
#35
1&
b100000 N
b100 Z
1<
#40
1(
b1000000 N
1.
0&
0,
b0 K
b0 L
b0 M
b0 F
0<
b11011101100001 =
#45
17
18
19
1P
1/
16
1'
0(
b1000000 Z
1<
#50
0'
b10 N
0-
1"
0<
1?
#55
07
08
10
b1 N
1R
0/
16
0P
0"
b10 Z
1Y
1<
#60
1-
0<
0?
#65
17
18
b10000 N
0R
1/
1:
1$
0Y
1W
b1 Z
1<
#70
1!
b1 N
1)
0$
0<
0@
#75
0W
1<
#80
0!
b10000 N
0)
1$
0<
1@
#85
06
07
08
09
b100 N
00
0/
0:
0$
b10000 Z
1<
#90
0.
1,
b11 K
b1111 L
b1111110 M
b10010101010100 F
0<
b1001000110101 =
#95
1&
b100000 N
b100 Z
1<
#100
0<
#105
b1 Q
b10000 N
1:
18
1%
b1 C
0&
b100000 Z
1<
#110
b1111111 M
b10010101010101 F
0<
b1001000110100 =
#115
b100 N
0:
08
0%
b0 C
b0z010 O
b1 B
b10000 Z
b1 X
1<
#120
0<
#125
b100000 N
1&
b100 Z
1<
#130
1(
b1000000 N
1.
0&
0,
b0 K
b0 L
b0 M
b0 F
0<
b11011101100001 =
#135
17
18
19
1P
0(
1/
16
1'
b1000000 Z
1<
#140
0<
#145
1Y
1<
#150
0'
b10 N
0-
1"
0<
1?
#155
07
08
10
b1 N
1R
0/
16
0P
0"
b10 Z
1<
#160
1-
0<
0?
#165
17
18
b0 Q
b10000 N
0R
1/
1:
1$
0Y
1W
b1 Z
1<
#170
1!
b1 N
1)
0$
0<
0@
#175
b1 A
b0z001 O
b0 B
0W
b0 X
1<
#180
0!
b10000 N
0)
1$
0<
1@
#185
06
07
08
09
b100 N
00
0/
0:
0$
b10000 Z
1<
#190
0.
1,
b11 K
b1111 L
b1111110 M
b10010101010100 F
0<
b1001000110101 =
#195
1&
b100000 N
b100 Z
1<
#200
0<
#205
b1 Q
b10000 N
1:
18
1%
b1 C
0&
b100000 Z
1<
#210
0<
#215
b100 N
0:
08
0%
b0 C
b0z010 O
b1 B
b10000 Z
b1 X
1<
#220
b1111111 M
b10010101010101 F
0<
b1001000110100 =
#225
b100000 N
1&
b100 Z
1<
#230
0<
#235
b10 Q
b10000 N
0&
1:
18
1%
b10 C
b100000 Z
1<
#240
0<
#245
04
b11111111 G
1;
b1111111111111111 H
b11111111111111111111111111111111 A
b0z011 O
0:
08
0%
b0 C
b100 N
b0 B
b10 X
b10000 Z
1<
#250
b1101 L
b1100011 M
b10010000001001 F
0<
b1001101101000 =
#255
1&
b100000 N
b100 Z
1<
#260
0<
#265
b11 Q
b10000 N
1:
18
1%
b11 C
0&
b100000 Z
1<
#270
0<
#275
1E
01
05
0+
1*
b11111110 G
b11111111 I
b1111111111111110 H
b100 N
0:
08
0%
b0 C
b1111111111111111 J
b0z100 O
b11111111111111111111111111111111 B
b10000 Z
b11 X
1<
#280
0<
#285
b100000 N
1&
b100 Z
1<
#290
0<
#295
b100 Q
1S
b1000 N
0&
1:
18
1#
b100 C
b1 D
b100000 Z
1<
#300
0-
0<
1?
#305
12
0+
03
1*
0;
b11111110 I
b1111111111111100 H
1T
b1111111111111100 J
b11111111111111111111111111111101 A
b0z101 O
0:
08
0#
b0 C
b0 D
17
b11111111111111111111111111111100 B
b100 X
1V
b1000 Z
1<
#310
0<
#315
1U
1<
#320
1+
0*
02
0E
13
15
11
14
b1111111111111110 H
16
18
19
b0 Q
b0 B
b1 A
b1111111111111110 J
b0z001 O
b10000 N
0T
10
1/
1:
1$
0S
b0 X
0U
0V
b1 Z
0<
1>
#325
1<
#330
0<
0>
#335
06
07
08
09
b100 N
00
0/
0:
0$
b10000 Z
1<
#340
1-
0<
0?
#345
1&
b100000 N
b100 Z
1<
#350
0<
#355
b1 Q
b10000 N
1:
18
1%
b1 C
0&
b100000 Z
1<
#360
0<
#365
b100 N
0:
08
0%
b0 C
b0z010 O
b1 B
b10000 Z
b1 X
1<
#370
1.
0,
b0 K
b0 L
b0 M
b0 F
0<
b11011101100001 =
#375
b1000000 N
1(
b100 Z
1<
#380
0-
0<
1?
#385
17
18
19
1P
b10 N
0(
1/
16
1"
b1000000 Z
1<
#390
1'
b1000000 N
1-
0"
0<
0?
#395
1Y
1<
#400
1)
0<
0@
