Tarea2/resultados_retardos.vcd
$date
	Fri Sep 20 13:05:54 2024
$end
$version
	Icarus Verilog
$end
$timescale
	1s
$end
$scope module controlador_estacionamiento_tb $end
$scope module U0 $end
$var wire 1 ! clk $end
$var wire 16 " password_input [15:0] $end
$var wire 1 # rst $end
$var wire 1 $ sensor_moved_vehicule $end
$var wire 1 % sensor_vehicule $end
$var wire 7 & state [6:0] $end
$var wire 1 ' open_gate $end
$var wire 3 ( counter [2:0] $end
$var wire 1 ) close_gate $end
$var wire 1 * alarm_wrong_pin $end
$var wire 1 + alarm_blocked $end
$var wire 1 , _082_ $end
$var wire 1 - _081_ $end
$var wire 1 . _080_ $end
$var wire 1 / _079_ $end
$var wire 1 0 _078_ $end
$var wire 1 1 _077_ $end
$var wire 1 2 _076_ $end
$var wire 1 3 _075_ $end
$var wire 1 4 _074_ $end
$var wire 1 5 _073_ $end
$var wire 1 6 _072_ $end
$var wire 1 7 _071_ $end
$var wire 1 8 _070_ $end
$var wire 1 9 _069_ $end
$var wire 1 : _068_ $end
$var wire 1 ; _067_ $end
$var wire 1 < _066_ $end
$var wire 1 = _065_ $end
$var wire 1 > _064_ $end
$var wire 1 ? _063_ $end
$var wire 1 @ _062_ $end
$var wire 1 A _061_ $end
$var wire 1 B _060_ $end
$var wire 1 C _059_ $end
$var wire 1 D _058_ $end
$var wire 1 E _057_ $end
$var wire 1 F _056_ $end
$var wire 1 G _055_ $end
$var wire 1 H _054_ $end
$var wire 1 I _053_ $end
$var wire 1 J _052_ $end
$var wire 1 K _051_ $end
$var wire 1 L _050_ $end
$var wire 1 M _049_ $end
$var wire 1 N _048_ $end
$var wire 1 O _047_ $end
$var wire 1 P _046_ $end
$var wire 1 Q _045_ $end
$var wire 1 R _044_ $end
$var wire 1 S _043_ $end
$var wire 1 T _042_ $end
$var wire 1 U _041_ $end
$var wire 1 V _040_ $end
$var wire 1 W _039_ $end
$var wire 1 X _038_ $end
$var wire 1 Y _037_ $end
$var wire 1 Z _036_ $end
$var wire 1 [ _035_ $end
$var wire 1 \ _034_ $end
$var wire 1 ] _033_ $end
$var wire 1 ^ _032_ $end
$var wire 1 _ _031_ $end
$var wire 1 ` _030_ $end
$var wire 1 a _029_ $end
$var wire 1 b _028_ $end
$var wire 1 c _027_ $end
$var wire 1 d _026_ $end
$var wire 1 e _025_ $end
$var wire 1 f _024_ $end
$var wire 1 g _023_ $end
$var wire 1 h _022_ $end
$var wire 1 i _021_ $end
$var wire 1 j _020_ $end
$var wire 1 k _019_ $end
$var wire 1 l _018_ $end
$var wire 1 m _017_ $end
$var wire 1 n _016_ $end
$var wire 1 o _015_ $end
$var wire 1 p _014_ $end
$var wire 1 q _013_ $end
$var wire 1 r _012_ $end
$var wire 1 s _011_ $end
$var wire 1 t _010_ $end
$var wire 1 u _009_ $end
$var wire 1 v _008_ $end
$var wire 1 w _007_ $end
$var wire 1 x _006_ $end
$var wire 1 y _005_ $end
$var wire 1 z _004_ $end
$var wire 3 { _003_ [2:0] $end
$var wire 1 | _002_ $end
$var wire 1 } _001_ $end
$var wire 1 ~ _000_ $end
$scope module _083_ $end
$var wire 1 # A $end
$var wire 1 [ Y $end
$upscope $end
$scope module _084_ $end
$var wire 1 !" A $end
$var wire 1 Z Y $end
$upscope $end
$scope module _085_ $end
$var wire 1 $ A $end
$var wire 1 Y Y $end
$upscope $end
$scope module _086_ $end
$var wire 1 % A $end
$var wire 1 X Y $end
$upscope $end
$scope module _087_ $end
$var wire 1 W Y $end
$var wire 1 * A $end
$upscope $end
$scope module _088_ $end
$var wire 1 "" A $end
$var wire 1 V Y $end
$upscope $end
$scope module _089_ $end
$var wire 1 #" A $end
$var wire 1 U Y $end
$upscope $end
$scope module _090_ $end
$var wire 1 $" A $end
$var wire 1 T Y $end
$upscope $end
$scope module _091_ $end
$var wire 1 %" A $end
$var wire 1 S Y $end
$upscope $end
$scope module _092_ $end
$var wire 1 [ A $end
$var wire 1 &" B $end
$var wire 1 R Y $end
$upscope $end
$scope module _093_ $end
$var wire 1 $ A $end
$var wire 1 R B $end
$var wire 1 Q Y $end
$upscope $end
$scope module _094_ $end
$var wire 1 Q A $end
$var wire 1 P Y $end
$upscope $end
$scope module _095_ $end
$var wire 1 # A $end
$var wire 1 T B $end
$var wire 1 O Y $end
$upscope $end
$scope module _096_ $end
$var wire 1 [ A $end
$var wire 1 '" B $end
$var wire 1 N Y $end
$upscope $end
$scope module _097_ $end
$var wire 1 (" A $end
$var wire 1 )" B $end
$var wire 1 M Y $end
$upscope $end
$scope module _098_ $end
$var wire 1 *" A $end
$var wire 1 +" B $end
$var wire 1 L Y $end
$upscope $end
$scope module _099_ $end
$var wire 1 M A $end
$var wire 1 L B $end
$var wire 1 K Y $end
$upscope $end
$scope module _100_ $end
$var wire 1 ," A $end
$var wire 1 -" B $end
$var wire 1 J Y $end
$upscope $end
$scope module _101_ $end
$var wire 1 ." A $end
$var wire 1 /" B $end
$var wire 1 I Y $end
$upscope $end
$scope module _102_ $end
$var wire 1 J A $end
$var wire 1 I B $end
$var wire 1 H Y $end
$upscope $end
$scope module _103_ $end
$var wire 1 K A $end
$var wire 1 H B $end
$var wire 1 G Y $end
$upscope $end
$scope module _104_ $end
$var wire 1 G A $end
$var wire 1 F Y $end
$upscope $end
$scope module _105_ $end
$var wire 1 0" A $end
$var wire 1 1" B $end
$var wire 1 E Y $end
$upscope $end
$scope module _106_ $end
$var wire 1 2" A $end
$var wire 1 3" B $end
$var wire 1 D Y $end
$upscope $end
$scope module _107_ $end
$var wire 1 E A $end
$var wire 1 D B $end
$var wire 1 C Y $end
$upscope $end
$scope module _108_ $end
$var wire 1 4" A $end
$var wire 1 5" B $end
$var wire 1 B Y $end
$upscope $end
$scope module _109_ $end
$var wire 1 6" A $end
$var wire 1 7" B $end
$var wire 1 A Y $end
$upscope $end
$scope module _110_ $end
$var wire 1 B A $end
$var wire 1 A B $end
$var wire 1 @ Y $end
$upscope $end
$scope module _111_ $end
$var wire 1 C A $end
$var wire 1 @ B $end
$var wire 1 ? Y $end
$upscope $end
$scope module _112_ $end
$var wire 1 F A $end
$var wire 1 ? B $end
$var wire 1 > Y $end
$upscope $end
$scope module _113_ $end
$var wire 1 O A $end
$var wire 1 > B $end
$var wire 1 = Y $end
$upscope $end
$scope module _114_ $end
$var wire 1 P A $end
$var wire 1 = B $end
$var wire 1 s Y $end
$upscope $end
$scope module _115_ $end
$var wire 1 8" A $end
$var wire 1 % B $end
$var wire 1 < Y $end
$upscope $end
$scope module _116_ $end
$var wire 1 9" A $end
$var wire 1 :" B $end
$var wire 1 ; Y $end
$upscope $end
$scope module _117_ $end
$var wire 1 ; A $end
$var wire 1 : Y $end
$upscope $end
$scope module _118_ $end
$var wire 1 ;" A $end
$var wire 1 : B $end
$var wire 1 9 Y $end
$upscope $end
$scope module _119_ $end
$var wire 1 U A $end
$var wire 1 ; B $end
$var wire 1 8 Y $end
$upscope $end
$scope module _120_ $end
$var wire 1 <" A $end
$var wire 1 9 B $end
$var wire 1 7 Y $end
$upscope $end
$scope module _121_ $end
$var wire 1 < A $end
$var wire 1 7 B $end
$var wire 1 6 Y $end
$upscope $end
$scope module _122_ $end
$var wire 1 6 A $end
$var wire 1 5 Y $end
$upscope $end
$scope module _123_ $end
$var wire 1 # A $end
$var wire 1 5 B $end
$var wire 1 t Y $end
$upscope $end
$scope module _124_ $end
$var wire 1 Z A $end
$var wire 1 9 B $end
$var wire 1 4 Y $end
$upscope $end
$scope module _125_ $end
$var wire 1 =" A $end
$var wire 1 8 B $end
$var wire 1 3 Y $end
$upscope $end
$scope module _126_ $end
$var wire 1 >" A $end
$var wire 1 4 B $end
$var wire 1 2 Y $end
$upscope $end
$scope module _127_ $end
$var wire 1 # A $end
$var wire 1 2 B $end
$var wire 1 u Y $end
$upscope $end
$scope module _128_ $end
$var wire 1 ?" A $end
$var wire 1 X B $end
$var wire 1 1 Y $end
$upscope $end
$scope module _129_ $end
$var wire 1 # A $end
$var wire 1 @" B $end
$var wire 1 0 Y $end
$upscope $end
$scope module _130_ $end
$var wire 1 1 A $end
$var wire 1 0 B $end
$var wire 1 v Y $end
$upscope $end
$scope module _131_ $end
$var wire 1 A" A $end
$var wire 1 B" B $end
$var wire 1 / Y $end
$upscope $end
$scope module _132_ $end
$var wire 1 V A $end
$var wire 1 / B $end
$var wire 1 . Y $end
$upscope $end
$scope module _133_ $end
$var wire 1 Z A $end
$var wire 1 V B $end
$var wire 1 - Y $end
$upscope $end
$scope module _134_ $end
$var wire 1 [ A $end
$var wire 1 - B $end
$var wire 1 , Y $end
$upscope $end
$scope module _135_ $end
$var wire 1 . A $end
$var wire 1 , B $end
$var wire 1 C" Y $end
$upscope $end
$scope module _136_ $end
$var wire 1 D" A $end
$var wire 1 / B $end
$var wire 1 r Y $end
$upscope $end
$scope module _137_ $end
$var wire 1 E" A $end
$var wire 1 ; B $end
$var wire 1 q Y $end
$upscope $end
$scope module _138_ $end
$var wire 1 r A $end
$var wire 1 q B $end
$var wire 1 p Y $end
$upscope $end
$scope module _139_ $end
$var wire 1 F" A $end
$var wire 1 G" B $end
$var wire 1 o Y $end
$upscope $end
$scope module _140_ $end
$var wire 1 [ A $end
$var wire 1 p B $end
$var wire 1 n Y $end
$upscope $end
$scope module _141_ $end
$var wire 1 o A $end
$var wire 1 n B $end
$var wire 1 H" Y $end
$upscope $end
$scope module _142_ $end
$var wire 1 I" A $end
$var wire 1 / B $end
$var wire 1 m Y $end
$upscope $end
$scope module _143_ $end
$var wire 1 m A $end
$var wire 1 l Y $end
$upscope $end
$scope module _144_ $end
$var wire 1 U A $end
$var wire 1 ; B $end
$var wire 1 k Y $end
$upscope $end
$scope module _145_ $end
$var wire 1 3 A $end
$var wire 1 k B $end
$var wire 1 j Y $end
$upscope $end
$scope module _146_ $end
$var wire 1 l A $end
$var wire 1 j B $end
$var wire 1 i Y $end
$upscope $end
$scope module _147_ $end
$var wire 1 # A $end
$var wire 1 i B $end
$var wire 1 J" Y $end
$upscope $end
$scope module _148_ $end
$var wire 1 K" A $end
$var wire 1 L" B $end
$var wire 1 h Y $end
$upscope $end
$scope module _149_ $end
$var wire 1 0 A $end
$var wire 1 h B $end
$var wire 1 g Y $end
$upscope $end
$scope module _150_ $end
$var wire 1 g A $end
$var wire 1 f Y $end
$upscope $end
$scope module _151_ $end
$var wire 1 f B $end
$var wire 1 e Y $end
$var wire 1 ' A $end
$upscope $end
$scope module _152_ $end
$var wire 1 R A $end
$var wire 1 e B $end
$var wire 1 z Y $end
$upscope $end
$scope module _153_ $end
$var wire 1 h B $end
$var wire 1 d Y $end
$var wire 1 + A $end
$upscope $end
$scope module _154_ $end
$var wire 1 d A $end
$var wire 1 c Y $end
$upscope $end
$scope module _155_ $end
$var wire 1 M" A $end
$var wire 1 c B $end
$var wire 1 b Y $end
$upscope $end
$scope module _156_ $end
$var wire 1 # A $end
$var wire 1 b B $end
$var wire 1 ~ Y $end
$upscope $end
$scope module _157_ $end
$var wire 1 N" A $end
$var wire 1 h B $end
$var wire 1 a Y $end
$upscope $end
$scope module _158_ $end
$var wire 1 W A $end
$var wire 1 a B $end
$var wire 1 ` Y $end
$upscope $end
$scope module _159_ $end
$var wire 1 4 A $end
$var wire 1 ` B $end
$var wire 1 _ Y $end
$upscope $end
$scope module _160_ $end
$var wire 1 # A $end
$var wire 1 _ B $end
$var wire 1 } Y $end
$upscope $end
$scope module _161_ $end
$var wire 1 h B $end
$var wire 1 ^ Y $end
$var wire 1 ) A $end
$upscope $end
$scope module _162_ $end
$var wire 1 ^ A $end
$var wire 1 ] Y $end
$upscope $end
$scope module _163_ $end
$var wire 1 O" A $end
$var wire 1 ] B $end
$var wire 1 \ Y $end
$upscope $end
$scope module _164_ $end
$var wire 1 # A $end
$var wire 1 \ B $end
$var wire 1 | Y $end
$upscope $end
$scope module _165_ $end
$var wire 1 Y A $end
$var wire 1 R B $end
$var wire 1 y Y $end
$upscope $end
$scope module _166_ $end
$var wire 1 N A $end
$var wire 1 > B $end
$var wire 1 w Y $end
$upscope $end
$scope module _167_ $end
$var wire 1 # A $end
$var wire 1 S B $end
$var wire 1 x Y $end
$upscope $end
$scope module _168_ $end
$var wire 1 ! C $end
$var wire 1 v D $end
$var reg 1 P" Q $end
$upscope $end
$scope module _169_ $end
$var wire 1 ! C $end
$var wire 1 y D $end
$var reg 1 Q" Q $end
$upscope $end
$scope module _170_ $end
$var wire 1 ! C $end
$var wire 1 x D $end
$var reg 1 R" Q $end
$upscope $end
$scope module _171_ $end
$var wire 1 ! C $end
$var wire 1 u D $end
$var reg 1 S" Q $end
$upscope $end
$scope module _172_ $end
$var wire 1 ! C $end
$var wire 1 t D $end
$var reg 1 T" Q $end
$upscope $end
$scope module _173_ $end
$var wire 1 ! C $end
$var wire 1 w D $end
$var reg 1 U" Q $end
$upscope $end
$scope module _174_ $end
$var wire 1 ! C $end
$var wire 1 s D $end
$var reg 1 V" Q $end
$upscope $end
$scope module _175_ $end
$var wire 1 ! C $end
$var wire 1 | D $end
$var reg 1 ) Q $end
$upscope $end
$scope module _176_ $end
$var wire 1 ! C $end
$var wire 1 } D $end
$var reg 1 * Q $end
$upscope $end
$scope module _177_ $end
$var wire 1 ! C $end
$var wire 1 ~ D $end
$var reg 1 + Q $end
$upscope $end
$scope module _178_ $end
$var wire 1 ! C $end
$var wire 1 z D $end
$var reg 1 ' Q $end
$upscope $end
$scope module _179_ $end
$var wire 1 ! C $end
$var wire 1 W" D $end
$var reg 1 X" Q $end
$upscope $end
$scope module _180_ $end
$var wire 1 ! C $end
$var wire 1 Y" D $end
$var reg 1 Z" Q $end
$upscope $end
$scope module _181_ $end
$var wire 1 ! C $end
$var wire 1 [" D $end
$var reg 1 \" Q $end
$upscope $end
$upscope $end
$upscope $end
$enddefinitions $end
#0
$dumpvars
x\"
x["
xZ"
xY"
xX"
xW"
xV"
xU"
xT"
xS"
xR"
xQ"
xP"
xO"
xN"
xM"
xL"
xK"
xJ"
xI"
xH"
xG"
xF"
xE"
xD"
xC"
xB"
xA"
x@"
x?"
x>"
x="
x<"
x;"
x:"
x9"
x8"
07"
06"
05"
04"
03"
02"
01"
00"
0/"
0."
0-"
0,"
0+"
0*"
0)"
0("
x'"
x&"
x%"
x$"
x#"
x""
x!"
x~
x}
x|
bx {
xz
xy
xx
xw
xv
xu
xt
xs
xr
xq
xp
xo
xn
xm
xl
xk
xj
xi
xh
xg
xf
xe
xd
xc
xb
xa
x`
x_
x^
x]
x\
x[
xZ
xY
xX
xW
xV
xU
xT
xS
xR
xQ
xP
xO
xN
xM
xL
xK
xJ
xI
xH
xG
xF
xE
xD
xC
xB
xA
x@
x?
x>
x=
x<
x;
x:
x9
x8
x7
x6
x5
x4
x3
x2
x1
x0
x/
x.
x-
x,
x+
x*
x)
bx (
x'
bx &
0%
0$
1#
b0 "
0!
$end
#1
0["
1M
1L
1J
1I
1E
1D
1B
1A
0x
0|
0}
0~
b0xx {
0J"
00
0u
0t
1<
0O
1Y
1X
0[
#2
0K
0H
0C
0@
1v
1g
1=
0y
1R
1N
1,
1n
#3
0W"
0Y"
1G
1?
0Q
0w
0C"
b0 {
0H"
0f
#4
0>
1e
0F
1P
#5
0z
0s
#10
0#
1!
#11
1K"
1A"
1?"
18"
0O"
0@"
0'"
0$"
0M"
0>"
0%"
0N"
0E"
0B"
0="
0<"
0!"
0L"
0&"
0G"
0:"
0""
0F"
0D"
09"
0I"
0;"
0#"
1P"
0Q"
0R"
0S"
0T"
0U"
b1 &
0V"
0)
0*
0+
0'
0X"
0Z"
b0 (
0\"
x["
xO
xt
xu
x0
bx00 {
xJ"
x~
x}
x|
xx
1[
#12
01
10
1q
0/
13
17
0h
1o
1r
1;
1m
1T
1S
1Z
1^
1d
1V
1U
1W
xv
xg
x,
xn
#13
xW"
1v
0j
06
1g
1a
0p
0O
0x
04
0.
0-
08
0k
0`
bx0x {
xC"
0:
0l
0]
0c
xf
#14
1n
12
1,
1_
19
1i
1\
1b
15
0f
#15
0W"
0["
0u
0C"
0}
b0 {
0J"
0|
0~
0t
#20
0!
#30
1!
#40
0!
#50
1!
1%
#51
0<
0X
#52
16
11
#53
0v
05
#54
1t
#60
0!
#70
10"
11"
12"
13"
14"
15"
16"
17"
1!
b11011101100001 "
#71
1%"
0K"
0A"
0?"
08"
1T"
b10000 &
0P"
0E
0D
0B
0A
#72
1h
1/
1<
0S
1C
1@
#73
0g
0a
06
1x
0?
#74
1>
1f
15
#75
0t
#80
0!
#90
1!
#91
1'"
1$"
0%"
1R"
b100 &
0T"
#92
0N
0T
1S
#93
1O
0x
#94
0=
#95
1s
#100
0!
1$
#101
0Y
#110
1!
#111
1L"
1&"
0'"
0$"
1V"
b1000000 &
0R"
#112
0h
0R
1N
1T
#113
1g
1a
1z
1y
0O
#114
1=
0f
#115
0s
#120
0!
#130
1!
0$
#131
1O"
1@"
0L"
0&"
1Q"
b10 &
0V"
1'
1Q
1Y
#132
0\
00
1h
1R
0y
0P
#133
1|
1v
0a
0Q
0z
1s
#134
1P
#135
0s
#140
0!
#150
1!
0%
#151
0O"
0@"
1K"
1A"
1?"
18"
0'
1)
0Q"
b1 &
1P"
1X
#152
1\
10
0h
0/
01
0^
#153
0|
1a
1^
1]
#154
0\
0]
#155
1|
1\
#156
0|
#160
0!
#170
1!
#171
0)
#180
0!
1%
#181
0<
0X
#182
16
11
#183
0v
05
#184
1t
#190
1!
#191
1%"
0K"
0A"
0?"
08"
1T"
b10000 &
0P"
#192
1h
1/
1<
0S
#193
0g
0a
06
1x
#194
1f
15
#195
0t
#200
1,"
1."
01"
03"
06"
07"
0!
b1001000110101 "
#201
0J
0I
1E
1D
1A
#202
1H
0C
0@
#203
0G
1?
#204
0>
1F
#210
1!
#211
1'"
1$"
0%"
1R"
b100 &
0T"
#212
0N
0T
1S
#213
1w
1O
0x
#220
0!
#230
1!
#231
1N"
1E"
1B"
1="
1<"
1!"
0'"
0$"
1U"
b100000 &
0R"
#232
0q
0/
07
1N
0Z
1T
#233
1p
16
0w
1-
0O
#234
0n
0,
05
#235
1W"
b1 {
1C"
1t
#240
04"
0!
b1001000110100 "
#241
1B
#250
1!
#251
1%"
0N"
0E"
0B"
0="
0<"
0!"
1G"
1:"
1""
1T"
b10000 &
0U"
b1 (
1X"
#252
1q
1/
17
0o
0S
1Z
0V
#253
1Y"
0p
06
b11 {
1H"
1x
#254
1n
15
#255
0Y"
b1 {
0H"
0t
#260
0!
#270
1!
#271
0%"
1'"
1$"
0T"
b100 &
1R"
#272
0N
1S
0T
#273
1w
0x
1O
#280
0,"
0."
11"
13"
14"
16"
17"
0!
b11011101100001 "
#281
1J
1I
0E
0D
0B
0A
#282
0H
1C
1@
#283
1G
0?
#284
0F
#285
1>
#286
0=
0w
#287
1s
#290
1!
#291
0'"
0$"
1L"
1&"
0R"
b1000000 &
1V"
#292
1N
0h
0R
1T
#293
1g
1a
1Q
1z
0O
#294
1=
0f
0P
#300
0!
#310
1!
#311
1'
#320
0!
1$
#321
0Q
0Y
#322
1y
1P
#323
0s
#330
1!
#331
1O"
1@"
0L"
0&"
1Q"
b10 &
0V"
#332
0\
00
1h
1R
#333
1|
1v
0a
0z
0y
#340
0!
0$
#341
1Y
#350
1!
#351
0O"
0@"
1K"
1A"
1?"
18"
0'
1)
0Q"
b1 &
1P"
#352
1\
10
0h
0/
0<
0^
#353
0|
0v
1a
1^
1.
16
1]
#354
0W"
b0 {
0C"
0\
0]
05
#355
1|
1\
1t
#356
0|
#360
0!
0%
#361
1<
1X
#362
06
01
#363
1v
15
#364
0t
#370
1!
#371
0G"
0:"
0""
0)
b0 (
0X"
#372
1o
1V
#373
0.
0-
#374
1W"
b1 {
1C"
1,
#375
0W"
b0 {
0C"
#380
0!
1%
#381
0<
0X
#382
16
11
#383
0v
05
#384
1t
#390
1!
#391
1%"
0K"
0A"
0?"
08"
1T"
b10000 &
0P"
#392
1h
1/
1<
0S
#393
0g
0a
06
1x
#394
1f
15
#395
0t
#400
1,"
1."
01"
03"
06"
07"
0!
b1001000110101 "
#401
0J
0I
1E
1D
1A
#402
1H
0C
0@
#403
0G
1?
#404
0>
1F
#410
1!
#411
1'"
1$"
0%"
1R"
b100 &
0T"
#412
0N
0T
1S
#413
1w
1O
0x
#420
0!
#430
1!
#431
1N"
1E"
1B"
1="
1<"
1!"
0'"
0$"
1U"
b100000 &
0R"
#432
0q
0/
07
1N
0Z
1T
#433
1p
16
0w
1-
0O
#434
0n
0,
05
#435
1W"
b1 {
1C"
1t
#440
0!
#450
1!
#451
1%"
0N"
0E"
0B"
0="
0<"
0!"
1G"
1:"
1""
1T"
b10000 &
0U"
b1 (
1X"
#452
1q
1/
17
0o
0S
1Z
0V
#453
1Y"
0p
06
b11 {
1H"
1x
#454
1n
15
#455
0Y"
b1 {
0H"
0t
#460
04"
0!
b1001000110100 "
#461
1B
#470
1!
#471
0%"
1'"
1$"
0T"
b100 &
1R"
#472
0N
1S
0T
#473
1w
0x
1O
#480
0!
#490
1!
#491
0'"
0$"
1N"
1E"
1B"
1="
1<"
1!"
0R"
b100000 &
1U"
#492
1N
0q
0/
07
1T
0Z
#493
0w
1p
1.
16
0O
#494
0W"
0n
b0 {
0C"
05
#495
1Y"
b10 {
1H"
1t
#500
0!
#510
1!
#511
1F"
1D"
19"
0G"
0:"
0""
0N"
0E"
0B"
0="
0<"
0!"
1%"
1Z"
b10 (
0X"
0U"
b10000 &
1T"
#512
1q
1/
17
1V
1Z
0S
#513
0p
0r
06
0.
0-
1x
#514
1W"
1n
1p
b11 {
1C"
1,
15
#515
0Y"
0W"
0H"
0n
b0 {
0C"
0t
#516
1Y"
b10 {
1H"
#520
0,"
1-"
0."
16"
17"
0!
b1001101101000 "
#521
1I
0A
#530
1!
#531
1'"
1$"
0%"
1R"
b100 &
0T"
#532
0N
0T
1S
#533
1w
1O
0x
#540
0!
#550
1!
#551
1N"
1E"
1B"
1="
1<"
1!"
0'"
0$"
1U"
b100000 &
0R"
#552
0q
0/
07
1N
0Z
1T
#553
1r
16
0w
1-
0O
#554
0,
05
#555
1W"
b11 {
1C"
1t
#560
0!
#570
1!
#571
1%"
0N"
0E"
0B"
0="
0<"
0!"
1G"
1:"
1""
1T"
b10000 &
0U"
b11 (
1X"
#572
1q
1/
17
0;
0S
1Z
0V
#573
0p
0r
06
18
1x
1:
#574
1n
1p
09
15
#575
0Y"
b1 {
0H"
0n
0t
#576
1Y"
b11 {
1H"
#580
0!
1$
#581
0Y
#590
1!
#591
0%"
1'"
1$"
0T"
b100 &
1R"
#592
0N
1S
0T
#593
1w
0x
1O
#600
0!
#610
1!
#611
0'"
0$"
1N"
1E"
1B"
1="
1<"
1!"
0R"
b100000 &
1U"
#612
1N
0/
03
1T
0Z
#613
0w
1.
1r
1j
0O
14
#614
0W"
b10 {
0C"
0p
0i
02
0_
#615
1["
1n
b110 {
1J"
1u
1}
#616
0Y"
b100 {
0H"
#620
0!
#630
1!
#631
1I"
1;"
1#"
0F"
0D"
09"
0G"
0:"
0""
0N"
0E"
0B"
0="
0<"
0!"
1M"
1>"
1\"
0Z"
b100 (
0X"
1*
0U"
b1000 &
1S"
#632
1o
1;
1/
13
0b
0U
1V
1Z
0W
#633
0m
0j
1~
0.
04
0-
1`
0:
#634
1W"
1i
b101 {
1C"
1,
1l
#635
0["
0W"
0J"
b0 {
0C"
0i
#636
1["
b100 {
1J"
#640
0!
#650
1!
1#
#651
1+
0["
0u
00
b0 {
0J"
0~
0}
0[
#652
0d
1v
1g
#653
1c
0f
#660
0!
#670
1!
0#
#671
0I"
0;"
0#"
0M"
0>"
1K"
1A"
1?"
18"
b0 (
0\"
0+
0*
0S"
b1 &
1P"
1["
1u
10
b100 {
1J"
1~
1}
1[
#672
1m
19
12
0h
0/
0<
1U
1d
1W
0v
0g
#673
0u
1g
1a
16
08
0`
0l
0c
1f
#674
1_
1i
1b
0f
05
#675
0["
0}
b0 {
0J"
0~
1t
#680
0!
#690
1!
0$
#691
0K"
0A"
0?"
08"
1%"
0P"
b10000 &
1T"
1Y
#692
1h
1/
1<
0S
#693
0g
0a
06
1x
#694
1f
15
#695
0t
#700
0!
#710
1!
#711
0%"
1'"
1$"
0T"
b100 &
1R"
#712
0N
1S
0T
#713
1w
0x
1O
#720
0!
#730
1!
#731
0'"
0$"
1N"
1E"
1B"
1="
1<"
1!"
0R"
b100000 &
1U"
#732
1N
0q
0/
07
1T
0Z
#733
0w
1p
16
0O
1-
#734
0n
0,
05
#735
1W"
b1 {
1C"
1t
#740
0-"
11"
13"
14"
0!
b11011101100001 "
#741
1J
0E
0D
0B
#742
0H
1C
1@
#743
1G
0?
#744
0F
#745
1>
#750
1!
#751
1G"
1:"
1""
0N"
0E"
0B"
0="
0<"
0!"
1%"
b1 (
1X"
0U"
b10000 &
1T"
#752
0o
1q
1/
17
0V
1Z
0S
#753
1Y"
b11 {
1H"
0p
06
1x
#754
1n
15
#755
0Y"
b1 {
0H"
0t
#760
0!
1$
#761
0Y
#770
1!
#771
1'"
1$"
0%"
1R"
b100 &
0T"
#772
0N
0T
1S
#773
1O
0x
#774
0=
#775
1s
#780
0!
0$
#781
1Y
#790
1!
#791
1L"
1&"
0'"
0$"
1V"
b1000000 &
0R"
#792
0h
0R
1N
1T
#793
1g
1a
1Q
1z
0O
#794
1=
0f
0P
#800
0!
0%
#801
1X
#810
1!
#811
1'
